…
``` r
nrow(baseline)
```

    ## [1] 8

``` r
amyloid = mci_amyloid_df |>
  anti_join(mci_baseline_df, by = "id")

amyloid
```

    ## # A tibble: 64 × 4
    ##       id baseline    time_in_years follow_up  
    ##    <dbl> <chr>       <chr>         <chr>      
    ##  1    72 0.106965463 2             <NA>       
    ##  2    72 0.106965463 4             0.107266218
    ##  3    72 0.106965463 6             0.106665207
    ##  4    72 0.106965463 8             <NA>       
    ##  5   234 0.110521689 2             0.110988335
    ##  6   234 0.110521689 4             0.110318671
    ##  7   234 0.110521689 6             0.107334344
    ##  8   234 0.110521689 8             0.108868811
    ##  9   283 0.113436336 2             0.106568976
    ## 10   283 0.113436336 4             0.11338643 
    ## # ℹ 54 more rows
…
